…
Data Final Clean

``` r
data %>% 
  group_by(provinsi) %>% 
  summarise(freq = n()) %>% 
  ungroup() %>% 
  arrange(desc(freq))
```

    ## `summarise()` ungrouping output (override with `.groups` argument)

    ## # A tibble: 59 x 2
    ##    provinsi          freq
    ##    <chr>            <int>
    ##  1 DKI Jakarta      50258
    ##  2 Jawa Barat       15078
    ##  3 Jawa Timur       14875
    ##  4 Banten           10988
    ##  5 Jawa Tengah       5738
    ##  6 Sumatera Utara    4279
    ##  7 <NA>              2919
    ##  8 Kepulauan Riau    2591
    ##  9 Bali              2166
    ## 10 Sulawesi Selatan  1261
    ## # … with 49 more rows
…
