…
``` r
# take only the channels that have at least 10 videos being trending
top = 
  vids.u %>% 
  group_by(channel_title) %>% 
  summarise(Freq = n()) %>% 
  ungroup() %>% 
  filter(Freq >= 10) %>% 
  arrange(desc(Freq)) %>% 
  rename(Channel = channel_title)

top 
```

    ## # A tibble: 38 x 2
    ##    Channel                                 Freq
    ##    <chr>                                  <int>
    ##  1 Refinery29                                31
    ##  2 The Tonight Show Starring Jimmy Fallon    30
    ##  3 Vox                                       29
    ##  4 TheEllenShow                              28
    ##  5 Netflix                                   27
    ##  6 NFL                                       25
    ##  7 ESPN                                      24
    ##  8 Jimmy Kimmel Live                         24
    ##  9 The Late Show with Stephen Colbert        22
    ## 10 Late Night with Seth Meyers               21
    ## # … with 28 more rows
…
day.agg = 
  vids.camp2 %>% 
  group_by(trending_dow,category_id) %>% 
  summarise(n = mean(n)) %>% 
  ungroup() %>% 
  arrange(category_id,trending_dow)

day.agg
```

    ## # A tibble: 21 x 3
    ##    trending_dow category_id       n
    ##    <ord>        <fct>         <dbl>
    ##  1 Min          Entertainment 47   
    ##  2 Sen          Entertainment 48.7 
    ##  3 Sel          Entertainment 47.3 
    ##  4 Rab          Entertainment 47.4 
    ##  5 Kam          Entertainment 47   
    ##  6 Jum          Entertainment 48.7 
    ##  7 Sab          Entertainment 46.7 
    ##  8 Min          Gaming         3.12
    ##  9 Sen          Gaming         3   
    ## 10 Sel          Gaming         2.62
    ## # … with 11 more rows
…
